{
  "uuid": "d2329f21-8d23-49c4-8983-cd3462a2a23e",
  "lastMigration": 24,
  "name": "Speach analysis",
  "endpointPrefix": "",
  "latency": 0,
  "port": 3002,
  "hostname": "0.0.0.0",
  "routes": [
    {
      "uuid": "3a0c450e-7a6d-4166-a8de-86f5e0e6506c",
      "documentation": "Returns dashboard charts data ",
      "method": "get",
      "endpoint": "dashboard",
      "responses": [
        {
          "uuid": "0baff32f-e751-4208-981e-47211c6833e9",
          "body": "{\n  \"data\": {\n    \"dashboard\": {\n      \"stats\": [\n        {\n          \"title\": \"Total Calls Received\",\n          \"value\": \"1,247\",\n          \"trend\": 15,\n          \"type\": \"calls\",\n          \"iconClasses\": \"text-purple-600 bg-purple-50\"\n        },\n        {\n          \"title\": \"Analyzed Today\",\n          \"value\": \"1,189\",\n          \"trend\": 8,\n          \"type\": \"analyzed\",\n          \"iconClasses\": \"text-blue-500 bg-blue-50\"\n        },\n        {\n          \"title\": \"Flagged for Review\",\n          \"value\": \"42\",\n          \"trend\": -12,\n          \"type\": \"flagged\",\n          \"iconClasses\": \"text-orange-500 bg-orange-50\"\n        },\n        {\n          \"title\": \"Needs Review\",\n          \"value\": \"15\",\n          \"trend\": -3,\n          \"type\": \"needs-review\",\n          \"iconClasses\": \"text-red-500 bg-red-50\"\n        }\n      ],\n      \"quickActions\": [\n        {\n          \"title\": \"Flagged\",\n          \"count\": 42,\n          \"description\": \"Review Now\",\n          \"type\": \"flagged\"\n        },\n        {\n          \"title\": \"Needs Review\",\n          \"count\": 15,\n          \"description\": \"Review Now\",\n          \"type\": \"needs-review\"\n        },\n        {\n          \"title\": \"Search calls\",\n          \"description\": \"Review customer service calls\",\n          \"type\": \"search\"\n        }\n      ]\n    }\n  }\n}",
          "latency": 0,
          "statusCode": 200,
          "label": "",
          "headers": [],
          "bodyType": "INLINE",
          "filePath": "",
          "databucketID": "",
          "sendFileAsBody": false,
          "rules": [],
          "rulesOperator": "OR",
          "disableTemplating": false,
          "fallbackTo404": false,
          "default": true
        }
      ],
      "enabled": true,
      "responseMode": null
    },
    {
      "uuid": "1d128e00-b556-47b1-a011-ed7101a41d2a",
      "documentation": "returns a list of calls",
      "method": "get",
      "endpoint": "calls",
      "responses": [
        {
          "uuid": "f9533de5-4cb5-4cf6-ad07-c1c5c1da1055",
          "body": "{\r\n\t\"data\": {\r\n\t\t\"calls\": {\r\n\t\t\t\"data\": [\r\n\t\t\t\t{\r\n\t\t\t\t\t\"priority\": \"high\",\r\n\t\t\t\t\t\"id\": \"CALL-2847\",\r\n\t\t\t\t\t\"date\": \"January 15, 2024\",\r\n\t\t\t\t\t\"time\": \"14:23\",\r\n\t\t\t\t\t\"agent\": \"أحمد الخالدي\",\r\n\t\t\t\t\t\"customer\": \"فاطمة السعيد\",\r\n\t\t\t\t\t\"duration\": \"12:34\",\r\n\t\t\t\t\t\"risk\": 85,\r\n\t\t\t\t\t\"status\": \"Pending\",\r\n\t\t\t\t\t\"status_ar\": \"قيد الانتظار\",\r\n\t\t\t\t\t\"reviewedBy\": \"—\"\r\n\t\t\t\t},\r\n\t\t\t\t{\r\n\t\t\t\t\t\"priority\": \"medium\",\r\n\t\t\t\t\t\"id\": \"CALL-2846\",\r\n\t\t\t\t\t\"date\": \"January 15, 2024\",\r\n\t\t\t\t\t\"time\": \"13:45\",\r\n\t\t\t\t\t\"agent\": \"سارة المنصور\",\r\n\t\t\t\t\t\"customer\": \"محمد الأحمد\",\r\n\t\t\t\t\t\"duration\": \"08:12\",\r\n\t\t\t\t\t\"risk\": 45,\r\n\t\t\t\t\t\"status\": \"Reviewed\",\r\n\t\t\t\t\t\"status_ar\": \"تمت المراجعة\",\r\n\t\t\t\t\t\"reviewedBy\": \"خالد العتيبي\"\r\n\t\t\t\t},\r\n\t\t\t\t{\r\n\t\t\t\t\t\"priority\": \"high\",\r\n\t\t\t\t\t\"id\": \"CALL-2845\",\r\n\t\t\t\t\t\"date\": \"January 15, 2024\",\r\n\t\t\t\t\t\"time\": \"12:30\",\r\n\t\t\t\t\t\"agent\": \"عمر الشمري\",\r\n\t\t\t\t\t\"customer\": \"نورة القحطاني\",\r\n\t\t\t\t\t\"duration\": \"15:23\",\r\n\t\t\t\t\t\"risk\": 92,\r\n\t\t\t\t\t\"status\": \"Flagged\",\r\n\t\t\t\t\t\"status_ar\": \"تم وضع علامة\",\r\n\t\t\t\t\t\"reviewedBy\": \"ليلى الدوسري\"\r\n\t\t\t\t},\r\n\t\t\t\t{\r\n\t\t\t\t\t\"priority\": \"low\",\r\n\t\t\t\t\t\"id\": \"CALL-2844\",\r\n\t\t\t\t\t\"date\": \"January 15, 2024\",\r\n\t\t\t\t\t\"time\": \"11:15\",\r\n\t\t\t\t\t\"agent\": \"مريم العلي\",\r\n\t\t\t\t\t\"customer\": \"يوسف الغامدي\",\r\n\t\t\t\t\t\"duration\": \"06:45\",\r\n\t\t\t\t\t\"risk\": 28,\r\n\t\t\t\t\t\"status\": \"Reviewed\",\r\n\t\t\t\t\t\"status_ar\": \"تمت المراجعة\",\r\n\t\t\t\t\t\"reviewedBy\": \"فيصل الحربي\"\r\n\t\t\t\t}\r\n\t\t\t],\r\n\t\t\t\"filters\": {\r\n\t\t\t\t\"tabs\": [\r\n\t\t\t\t\t{\r\n\t\t\t\t\t\t\"label\": \"All\",\r\n\t\t\t\t\t\t\"label_ar\": \"الكل\",\r\n\t\t\t\t\t\t\"count\": 982,\r\n\t\t\t\t\t\t\"active\": true\r\n\t\t\t\t\t},\r\n\t\t\t\t\t{\r\n\t\t\t\t\t\t\"label\": \"Pending\",\r\n\t\t\t\t\t\t\"label_ar\": \"قيد الانتظار\",\r\n\t\t\t\t\t\t\"count\": 42,\r\n\t\t\t\t\t\t\"active\": false\r\n\t\t\t\t\t},\r\n\t\t\t\t\t{\r\n\t\t\t\t\t\t\"label\": \"In Review\",\r\n\t\t\t\t\t\t\"label_ar\": \"قيد المراجعة\",\r\n\t\t\t\t\t\t\"count\": 8,\r\n\t\t\t\t\t\t\"active\": false\r\n\t\t\t\t\t},\r\n\t\t\t\t\t{\r\n\t\t\t\t\t\t\"label\": \"Reviewed\",\r\n\t\t\t\t\t\t\"label_ar\": \"تمت المراجعة\",\r\n\t\t\t\t\t\t\"count\": 189,\r\n\t\t\t\t\t\t\"active\": false\r\n\t\t\t\t\t},\r\n\t\t\t\t\t{\r\n\t\t\t\t\t\t\"label\": \"Flagged\",\r\n\t\t\t\t\t\t\"label_ar\": \"تم وضع علامة\",\r\n\t\t\t\t\t\t\"count\": 15,\r\n\t\t\t\t\t\t\"active\": false\r\n\t\t\t\t\t}\r\n\t\t\t\t]\r\n\t\t\t},\r\n\t\t\t\"pagination\": {\r\n\t\t\t\t\"total\": 982,\r\n\t\t\t\t\"page\": 1,\r\n\t\t\t\t\"limit\": 10,\r\n\t\t\t\t\"pages\": 99\r\n\t\t\t}\r\n\t\t}\r\n\t}\r\n}\r\n",
          "latency": 0,
          "statusCode": 200,
          "label": "",
          "headers": [
            {
              "key": "Access-Control-Allow-Origin",
              "value": "*"
            }
          ],
          "bodyType": "INLINE",
          "filePath": "",
          "databucketID": "",
          "sendFileAsBody": false,
          "rules": [],
          "rulesOperator": "OR",
          "disableTemplating": false,
          "fallbackTo404": false,
          "default": true
        }
      ],
      "enabled": true,
      "responseMode": null
    },
    {
      "uuid": "9f844b4c-af35-4846-8c5c-cda21a534453",
      "documentation": "returns specific call details",
      "method": "get",
      "endpoint": "calls/:id",
      "responses": [
        {
          "uuid": "375ac7aa-9531-4396-92e7-6b38d644fa6e",
          "body": "{}",
          "latency": 0,
          "statusCode": 200,
          "label": "",
          "headers": [],
          "bodyType": "INLINE",
          "filePath": "",
          "databucketID": "",
          "sendFileAsBody": false,
          "rules": [],
          "rulesOperator": "OR",
          "disableTemplating": false,
          "fallbackTo404": false,
          "default": true
        }
      ],
      "enabled": true,
      "responseMode": null
    },
    {
      "uuid": "b4c5d0e5-d209-4d8e-b3e4-3f4882aee56f",
      "documentation": "",
      "method": "get",
      "endpoint": "dashboard/recent-activity",
      "responses": [
        {
          "uuid": "f48cc083-c208-4e3f-81c8-2e639a3e6b49",
          "body": "{\n  \"data\": {\n    \"recentActivity\": [\n      {\n        \"user\": \"Sarah Johnson\",\n        \"action\": \"Reviewed\",\n        \"callId\": \"CALL-2847\",\n        \"time\": \"2 minutes ago\",\n        \"color\": \"bg-blue-500\",\n        \"callLink\": \"CALL-2847\"\n      },\n      {\n        \"user\": \"Mike Chen\",\n        \"action\": \"Flagged\",\n        \"callId\": \"CALL-2846\",\n        \"time\": \"5 minutes ago\",\n        \"color\": \"bg-red-500\",\n        \"callLink\": \"CALL-2846\"\n      },\n      {\n        \"user\": \"Emma Davis\",\n        \"action\": \"Reviewed\",\n        \"callId\": \"CALL-2845\",\n        \"time\": \"12 minutes ago\",\n        \"color\": \"bg-blue-500\",\n        \"callLink\": \"CALL-2845\"\n      },\n      {\n        \"user\": \"James Wilson\",\n        \"action\": \"Reviewed\",\n        \"callId\": \"CALL-2844\",\n        \"time\": \"18 minutes ago\",\n        \"color\": \"bg-blue-500\",\n        \"callLink\": \"CALL-2844\"\n      },\n      {\n        \"user\": \"Lisa Anderson\",\n        \"action\": \"Flagged\",\n        \"callId\": \"CALL-2843\",\n        \"time\": \"25 minutes ago\",\n        \"color\": \"bg-red-500\",\n        \"callLink\": \"CALL-2843\"\n      }\n    ]\n  }\n}",
          "latency": 0,
          "statusCode": 200,
          "label": "",
          "headers": [],
          "bodyType": "INLINE",
          "filePath": "",
          "databucketID": "",
          "sendFileAsBody": false,
          "rules": [],
          "rulesOperator": "OR",
          "disableTemplating": false,
          "fallbackTo404": false,
          "default": true
        }
      ],
      "enabled": true,
      "responseMode": null
    }
  ],
  "proxyMode": false,
  "proxyHost": "",
  "proxyRemovePrefix": false,
  "tlsOptions": {
    "enabled": false,
    "type": "CERT",
    "pfxPath": "",
    "certPath": "",
    "keyPath": "",
    "caPath": "",
    "passphrase": ""
  },
  "cors": true,
  "headers": [
    {
      "key": "Content-Type",
      "value": "application/json"
    }
  ],
  "proxyReqHeaders": [
    {
      "key": "",
      "value": ""
    }
  ],
  "proxyResHeaders": [
    {
      "key": "",
      "value": ""
    }
  ],
  "data": []
}
